{
   "L2muon": {
       "chains" : " HLT_mu24_idperf_L1MU14FCH:key=HLT_IDTrack_Muon_FTF:roi=HLT_Roi_L2SAMuon  HLT_mu26_ivarperf_L1MU14FCH:key=HLT_IDTrack_MuonIso_FTF:roi=HLT_Roi_MuonIso " 
   },
   "EFmuon": {
       "chains" : " HLT_mu24_idperf_L1MU14FCH:key=HLT_IDTrack_Muon_FTF:roi=HLT_Roi_L2SAMuon  HLT_mu24_idperf_L1MU14FCH:key=HLT_IDTrack_Muon_IDTrig:roi=HLT_Roi_L2SAMuon  HLT_mu26_ivarperf_L1MU14FCH:key=HLT_IDTrack_MuonIso_IDTrig:roi=HLT_Roi_MuonIso " 
   },
   "L2muonLowpt": {
       "chains" : " HLT_mu6_idperf_L1MU5VF:key=HLT_IDTrack_Muon_FTF:roi=HLT_Roi_L2SAMuon  HLT_mu4_mu4_idperf_1invmAB5_L12MU3VF:key=HLT_IDTrack_Muon_FTF:roi=HLT_L2SAMuon:te=1 " 
   },
   "EFmuonLowpt": {
       "chains" : " HLT_mu6_idperf_L1MU5VF:key=HLT_IDTrack_Muon_FTF:roi=HLT_Roi_L2SAMuon  HLT_mu6_idperf_L1MU5VF:key=HLT_IDTrack_Muon_IDTrig:roi=HLT_Roi_L2SAMuon  HLT_mu4_mu4_idperf_1invmAB5_L12MU3VF:key=HLT_IDTrack_Muon_IDTrig:roi=HLT_L2SAMuon:te=1 " 
   },
   "L2muonTnP": {
       "chains" : " HLT_mu24_idperf_L1MU14FCH:key=HLT_IDTrack_Muon_FTF:roi=HLT_Roi_L2SAMuon  HLT_mu14_mu14_idtp_idZmumu_L12MU8F:key=HLT_IDTrack_Muon_FTF:roi=HLT_Roi_L2SAMuon:te=1 " 
   },
   "EFmuonTnP": {
       "chains" : " HLT_mu24_idperf_L1MU14FCH:key=HLT_IDTrack_Muon_IDTrig:roi=HLT_Roi_L2SAMuon  HLT_mu14_mu14_idtp_idZmumu_L12MU8F:key=HLT_IDTrack_Muon_IDTrig:roi=HLT_Roi_L2SAMuon:te=1 " 
   },
   "L2muonLRT": {
       "chains" : " HLT_mu20_LRT_idperf_L1MU14FCH:key=HLT_IDTrack_MuonLRT_FTF:roi=HLT_Roi_L2SAMuon_LRT  HLT_mu24_idperf_L1MU14FCH:key=HLT_IDTrack_Muon_FTF:roi=HLT_Roi_L2SAMuon " 
   },
   "EFmuonLRT": {
       "chains" : " HLT_mu20_LRT_idperf_L1MU14FCH:key=HLT_IDTrack_MuonLRT_IDTrig:roi=HLT_Roi_L2SAMuon_LRT  HLT_mu24_idperf_L1MU14FCH:key=HLT_IDTrack_Muon_IDTrig:roi=HLT_Roi_L2SAMuon " 
   },
   "L2muonLRTLowpt": {
       "chains" : " HLT_mu6_LRT_idperf_L1MU5VF:key=HLT_IDTrack_MuonLRT_FTF:roi=HLT_Roi_L2SAMuon_LRT  HLT_mu6_idperf_L1MU5VF:key=HLT_IDTrack_Muon_FTF:roi=HLT_Roi_L2SAMuon " 
   },
   "EFmuonLRTLowpt": {
       "chains" : " HLT_mu6_LRT_idperf_L1MU5VF:key=HLT_IDTrack_MuonLRT_IDTrig:roi=HLT_Roi_L2SAMuon_LRT  HLT_mu6_idperf_L1MU5VF:key=HLT_IDTrack_IDTrack_Muon_IDTrig:roi=HLT_Roi_L2SAMuon " 
   },
   "L2electron": {
       "chains" : " HLT_e26_idperf_loose_L1eEM26M:key=HLT_IDTrack_Electron_FTF:roi=HLT_Roi_FastElectron  HLT_e28_idperf_loose_L1eEM28M:key=HLT_IDTrack_Electron_FTF:roi=HLT_Roi_FastElectron " 
   },
   "EFelectron": {
       "chains" : " HLT_e26_idperf_loose_L1eEM26M:key=HLT_IDTrack_Electron_FTF:roi=HLT_Roi_FastElectron  HLT_e26_idperf_loose_L1eEM26M:key=HLT_IDTrack_Electron_IDTrig  HLT_e28_idperf_loose_L1eEM28M:key=HLT_IDTrack_Electron_IDTrig  HLT_e26_idperf_tight_L1eEM26M:key=HLT_IDTrack_Electron_GSF " 
   },
   "L2electronLowpt": {
       "chains" : " HLT_e5_idperf_tight_L1eEM5:key=HLT_IDTrack_Electron_FTF:roi=HLT_Roi_FastElectron  HLT_e5_idperf_tight_nogsf_L1eEM5:key=HLT_IDTrack_Electron_FTF:roi=HLT_Roi_FastElectron " 
   },
   "EFelectronLowpt": {
       "chains" : " HLT_e5_idperf_tight_L1eEM5:key=HLT_IDTrack_Electron_FTF:roi=HLT_Roi_FastElectron  HLT_e5_idperf_tight_L1eEM5:key=HLT_IDTrack_Electron_IDTrig  HLT_e5_idperf_tight_L1eEM5:key=HLT_IDTrack_Electron_GSF " 
   },
   "L2electronTnP": {
       "chains" : " HLT_e26_idperf_loose_L1eEM26M:key=HLT_IDTrack_Electron_FTF:roi=HLT_Roi_FastElectron  HLT_e28_idperf_loose_L1eEM28M:key=HLT_IDTrack_Electron_FTF:roi=HLT_Roi_FastElectron  HLT_e26_lhtight_e14_idperf_tight_nogsf_probe_50invmAB130_L1eEM26M:key=HLT_IDTrack_Electron_FTF:roi=HLT_Roi_FastElectron:te=1 " 
   },
   "EFelectronTnP": {
       "chains" : " HLT_e26_idperf_loose_L1eEM26M:key=HLT_IDTrack_Electron_GSF  HLT_e26_lhtight_e14_idperf_tight_nogsf_probe_50invmAB130_L1eEM26M:key=HLT_IDTrack_Electron_FTF:roi=HLT_Roi_FastElectron:te=1  HLT_e26_lhtight_e14_idperf_tight_nogsf_probe_50invmAB130_L1eEM26M:key=HLT_IDTrack_Electron_IDTrig:te=1  HLT_e26_lhtight_e14_idperf_tight_probe_50invmAB130_L1eEM26M:key=HLT_IDTrack_Electron_GSF:te=1 " 
   },
   "L2electronLRT": {
       "chains" : " HLT_e20_idperf_loose_lrtloose_L1eEM18L:key=HLT_IDTrack_ElecLRT_FTF:roi=HLT_Roi_FastElectron_LRT  HLT_e30_idperf_loose_lrtloose_L1eEM26M:key=HLT_IDTrack_ElecLRT_FTF:roi=HLT_Roi_FastElectron_LRT  HLT_e5_idperf_loose_lrtloose_probe_g25_medium_L1eEM24L:key=HLT_IDTrack_ElecLRT_FTF:roi=HLT_Roi_FastElectron_LRT:0  HLT_e30_lhloose_nopix_lrtmedium_probe_g25_medium_L1eEM24L:key=HLT_IDTrack_ElecLRT_FTF:roi=HLT_Roi_FastElectron_LRT:0  HLT_e26_lhtight_ivarloose_e5_idperf_loose_lrtloose_probe_L1eEM26M:key=HLT_IDTrack_ElecLRT_FTF:roi=HLT_Roi_FastElectron_LRT:1  HLT_e26_lhtight_ivarloose_e30_lhloose_nopix_lrtmedium_probe_L1eEM26M:key=HLT_IDTrack_ElecLRT_FTF:roi=HLT_Roi_FastElectron_LRT:1 " 
   },
   "EFelectronLRT": {
       "chains" : " HLT_e20_idperf_loose_lrtloose_L1eEM18L:key=HLT_IDTrack_ElecLRT_IDTrig:roi=HLT_Roi_FastElectron_LRT  HLT_e30_idperf_loose_lrtloose_L1eEM26M:key=HLT_IDTrack_ElecLRT_IDTrig:roi=HLT_Roi_FastElectron_LRT  HLT_e5_idperf_loose_lrtloose_probe_g25_medium_L1eEM24L:key=HLT_IDTrack_ElecLRT_IDTrig:roi=HLT_Roi_FastElectron_LRT:0  HLT_e30_lhloose_nopix_lrtmedium_probe_g25_medium_L1eEM24L:key=HLT_IDTrack_ElecLRT_IDTrig:roi=HLT_Roi_FastElectron_LRT:0  HLT_e26_lhtight_ivarloose_e30_lhloose_nopix_lrtmedium_probe_L1eEM26M:key=HLT_IDTrack_ElecLRT_FTF:roi=HLT_Roi_FastElectron_LRT:1  HLT_e26_lhtight_ivarloose_e30_lhloose_nopix_lrtmedium_probe_L1eEM26M:key=HLT_IDTrack_ElecLRT_IDTrig:roi=HLT_Roi_FastElectron_LRT:1 " 
   },
   "L2tau": {
       "chains" : " HLT_tau25_idperf_tracktwoMVA_L1cTAU20M:key=HLT_IDTrack_TauCore_FTF:roi=HLT_Roi_TauCore  HLT_tau25_idperf_tracktwoMVA_L1cTAU20M:key=HLT_IDTrack_TauIso_FTF:roi=HLT_Roi_TauIso " 
   },
   "EFtau": {
       "chains" : " HLT_tau25_idperf_tracktwoMVA_L1cTAU20M:key=HLT_IDTrack_TauIso_FTF:roi=HLT_Roi_TauIso  HLT_tau25_idperf_tracktwoMVA_L1cTAU20M:key=HLT_IDTrack_Tau_IDTrig:roi=HLT_Roi_TauIso " 
   },
   "EFtauvtx": {
       "chains" : " HLT_tau25_idperf_tracktwoMVA_L1cTAU20M:key=HLT_IDTrack_Tau_IDTrig:roi=HLT_Roi_TauIso:HLT_IDVertex_Tau/HLT_IDVertex_Tau " 
   },
   "L2tauLRT": {
       "chains" : " HLT_tau25_idperf_tracktwoLLP_L1cTAU20M:key=HLT_IDTrack_TauCore_FTF:roi=HLT_Roi_TauCore  HLT_tau25_idperf_tracktwoLLP_L1cTAU20M:key=HLT_IDTrack_TauIso_FTF:roi=HLT_Roi_TauIso  HLT_tau25_idperf_trackLRT_L1cTAU20M:key=HLT_IDTrack_TauLRT_FTF:roi=HLT_Roi_TauLRT " 
   },
   "EFtauLRT": {
       "chains" : " HLT_tau25_idperf_trackLRT_L1cTAU20M:key=HLT_IDTrack_TauLRT_FTF:roi=HLT_Roi_TauLRT  HLT_tau25_idperf_trackLRT_L1cTAU20M:key=HLT_IDTrack_TauLRT_IDTrig:roi=HLT_Roi_TauLRT  HLT_tau25_idperf_tracktwoLLP_L1cTAU20M:key=HLT_IDTrack_TauIso_FTF:roi=HLT_Roi_TauIso  HLT_tau25_idperf_tracktwoLLP_L1cTAU20M:key=HLT_IDTrack_Tau_IDTrig:roi=HLT_Roi_TauIso " 
   },
   "L2bjet": {
       "chains" : " HLT_j45_0eta290_020jvt_boffperf_pf_ftf_L1jJ50:key=HLT_IDTrack_Bjet_FTF:roi=HLT_Roi_Bjet  HLT_j45_0eta290_020jvt_boffperf_pf_ftf_L1jJ50:key=HLT_IDTrack_FS_FTF:roi=HLT_FSRoI:vtx=HLT_IDVertex_FS  HLT_j80_0eta290_020jvt_boffperf_pf_ftf_L1jJ90:key=HLT_IDTrack_FS_FTF:roi=HLT_FSRoI:vtx=HLT_IDVertex_FS  HLT_j80_0eta290_020jvt_boffperf_pf_ftf_L1jJ90:key=HLT_IDTrack_JetSuper_FTF:roi=HLT_Roi_JetSuper  HLT_j20_roiftf_preselj20_L1RD0_FILLED:HLT:key=IDTrack_JetSuper_FTF:roi=HLT_Roi_JetSuper " 
   },
   "EFbjet": {
       "chains" : " HLT_j45_0eta290_020jvt_boffperf_pf_ftf_L1jJ50:key=HLT_IDTrack_Bjet_FTF:roi=HLT_Roi_Bjet  HLT_j45_0eta290_020jvt_boffperf_pf_ftf_L1jJ50:key=HLT_IDTrack_Bjet_IDTrig:roi=HLT_Roi_Bjet " 
   },
   "L2fsjet": {
       "chains" : " HLT_j45_pf_ftf_preselj20_L1jJ40:key=HLT_IDTrack_FS_FTF:roi=HLT_FSRoI:vtx=HLT_IDVertex_FS  HLT_j45_0eta290_020jvt_boffperf_pf_ftf_L1jJ50:key=HLT_IDTrack_FS_FTF:roi=HLT_FSRoI:vtx=HLT_IDVertex_FS  HLT_j80_0eta290_020jvt_boffperf_pf_ftf_L1jJ90:key=HLT_IDTrack_FS_FTF:roi=HLT_FSRoI:vtx=HLT_IDVertex_FS " 
   },
   "L2fsjetvtx": {
       "chains" : " HLT_j45_pf_ftf_preselj20_L1jJ40:key=HLT_IDTrack_FS_FTF:roi=HLT_FSRoI:vtx=HLT_IDVertex_FS/HLT_IDVertex_FS  HLT_j45_0eta290_020jvt_boffperf_pf_ftf_L1jJ50:key=HLT_IDTrack_FS_FTF:roi=HLT_FSRoI:vtx=HLT_IDVertex_FS/HLT_IDVertex_FS " 
   },
   "L2fst0vtx": {
       "chains" : " HLT_j45_pf_ftf_preselj20_L1jJ40:key=HLT_IDTrack_FS_FTF:roi=HLT_FSRoI:vtx=HLT_IDVertex_FS/HLT_IDVertex_FS " 
   },
   "L2minbias": {
       "chains" : " HLT_mb_sptrk_L1RD0_FILLED:key=HLT_IDTrack_MinBias_IDTrig " 
   },
   "EFminbias": {
       "chains" : " HLT_mb_sptrk_L1RD0_FILLED:key=HLT_IDTrack_MinBias_IDTrig " 
   },
   "L2minbiaspix": {
       "chains" : " HLT_mb_pixsptrk_nototpix20_q2_L1TRT_ZDC_A_C_VjTE10:key=HLT_IDTrack_MinBiasPixel_IDTrig " 
   },
   "EFminbiaspix": {
       "chains" : " HLT_mb_pixsptrk_nototpix20_q2_L1TRT_ZDC_A_C_VjTE10:key=HLT_IDTrack_MinBiasPixel_IDTrig " 
   },
   "L2bphys": {
       "chains" : " HLT_2mu4_bBmumux_BsmumuPhi_L12MU3V:key=HLT_IDTrack_Bmumux_FTF  HLT_mu11_mu6_bBmumux_Bidperf_L1MU8VF_2MU5VF:key=HLT_IDTrack_Bmumux_FTF " 
   },
   "EFbphys": {
       "chains" : " HLT_2mu4_bBmumux_BsmumuPhi_L12MU3V:key=HLT_IDTrack_Bmumux_FTF  HLT_2mu4_bBmumux_BsmumuPhi_L12MU3V:key=HLT_IDTrack_Bmumux_IDTrig  HLT_mu11_mu6_bBmumux_Bidperf_L1MU8VF_2MU5VF:key=HLT_IDTrack_Bmumux_FTF  HLT_mu11_mu6_bBmumux_Bidperf_L1MU8VF_2MU5VF:key=HLT_IDTrack_Bmumux_IDTrig " 
   },
   "EFcosmic": {
       "chains" : " HLT_mu4_cosmic_L1MU3V_EMPTY:key=HLT_IDTrack_Cosmic_IDTrig " 
   },
   "L2FSLRT": {
       "chains" : " HLT_fslrt0_L1jJ160:key=HLT_IDTrack_FS_FTF:roi=HLT_FSRoI  HLT_fslrt0_L1jJ160:key=HLT_IDTrack_FSLRT_FTF:roi=HLT_FSRoI " 
   },
   "EFFSLRT": {
       "chains" : " HLT_fslrt0_L1jJ160:key=HLT_IDTrack_FSLRT_FTF:roi=HLT_FSRoI  HLT_fslrt0_L1jJ160:key=HLT_IDTrack_FSLRT_IDTrig:roi=HLT_FSRoI " 
   },
   "beamspot": {
       "chains" : " HLT_beamspot_trkFS_trkfast_BeamSpotPEB_L14jJ50:key=HLT_IDTrack_FTF_Beamspot  HLT_beamspot_trkFS_trkfast_BeamSpotPEB_L1jJ30_VjTE200:key=HLT_IDTrack_Beamspot  HLT_beamspot_trkFS_trkfast_BeamSpotPEB_L1jJ40:key=HLT_IDTrack_FTF_Beamspot  HLT_j0_ftf_beamspotVtx_L1jJ30_VjTE200:key=HLT_IDTrack_FTF_FS " 
   }
}
